Running: xsim.dir/tb_simple_lfsr_behav/xsimk -simmode gui -wdb tb_simple_lfsr_behav.wdb -simrunnum 0 -socket 35659
Design successfully loaded
Design Loading Memory Usage: 33196 KB (Peak: 33316 KB)
Design Loading CPU Usage: 20 ms
Simulation completed
Simulation Memory Usage: 115192 KB (Peak: 172464 KB)
Simulation CPU Usage: 20 ms
