# compile verilog/system verilog design source files
sv xil_defaultlib  \
"../../../../../src/lfsr.sv" \
"../../../../../sim/lfsr/lfsr_tb.sv" \

# compile glbl module
verilog xil_defaultlib "glbl.v"

# Do not sort compile order
nosort
